id,name,model_id:id,group_id:id,perm_read,perm_write,perm_create,perm_unlink
access_moncon_hr_holidays_user,access_moncon_hr_holidays_user,model_moncon_hr_holidays,hr_holidays.group_hr_holidays_user,1,1,1,1
access_moncon_hr_holidays_manager,access_moncon_hr_holidays_manager,model_moncon_hr_holidays,hr_holidays.group_hr_holidays_manager,1,1,1,1
moncon_hr_holidays_workflow_history_user,access_moncon_hr_holidays_workflow_history_manager,model_moncon_hr_holidays_workflow_history,hr_holidays.group_hr_holidays_user,1,1,1,1
